<svg width="10" height="10" viewBox="0 0 10 10" fill="none" xmlns="http://www.w3.org/2000/svg">
<path opacity="0.501" fill-rule="evenodd" clip-rule="evenodd" d="M10 0.833333L9.16667 0L5 4.16667L0.833333 0L0 0.833333L4.16667 5L0 9.16667L0.833334 10L5 5.83333L9.16667 10L10 9.16667L5.83333 5L10 0.833333Z" fill="black"/>
</svg>
