<svg width="23" height="15" viewBox="0 0 23 15" fill="none" xmlns="http://www.w3.org/2000/svg">
<path d="M0.5 0.5H22.5" stroke="#17181A" stroke-linecap="square"/>
<path d="M0.5 7.5H22.5" stroke="#17181A" stroke-linecap="square"/>
<path d="M0.5 14.5H22.5" stroke="#17181A" stroke-linecap="square"/>
</svg>
