<svg width="24" height="25" viewBox="0 0 24 25" fill="none" xmlns="http://www.w3.org/2000/svg">
<rect x="1" y="9.38477" width="22" height="14.6154" rx="1" stroke="#2F3641" stroke-width="2"/>
<path d="M9.42856 12.0769C9.42856 1.29111 11.3255 1 13.2225 1C15.1195 1 15.4286 12.0769 15.4286 12.0769" stroke="#2F3641" stroke-width="2"/>
</svg>
